Finn 6211 - Final Project
…
2.3 Monthly and Ascending

Script) 03-to-monthly-and-ascending.R

At this point, our dataset looks like this:

parameters <- readRDS("data/cleaned/parameters/parameters.rds")
parameters

## # A tibble: 9,543 x 7
##   date       BETA0 BETA1      BETA2 BETA3  TAU1  TAU2
##   <date>     <dbl> <dbl>      <dbl> <dbl> <dbl> <dbl>
## 1 2018-03-29  4.13 -2.25  0.000228  -3.07  2.84  11.4
## 2 2018-03-28  4.35 -2.48 -0.000089  -3.53  2.99  12.2
## 3 2018-03-27  4.44 -2.59  0.000314  -3.67  3.18  12.5
## 4 2018-03-26  4.27 -2.44 -0.0000588 -3.12  2.73  11.8
## 5 2018-03-23  4.53 -2.69  0.000245  -3.78  3.17  12.9
## # ... with 9,538 more rows
…
