Finn 6211 - Final Project
…
We will need the data for the \(y_t(1)\), \(y_t(5)\), and \(y_t(10)\) spot rates along
with the yield curve factors. These have already been calculated in the scripts referenced in 3.1 and 3.5 so we can just load them in.

rates_and_prices    <- read_rds("data/computed/rates_and_prices.rds")
yield_curve_factors <- read_rds("data/computed/yield_curve_factors.rds")
n <- c("1", "5", "10")

spot_rates_q2 <- rates_and_prices %>%
  #filter(maturity_nm %in% n) %>%
  unnest() %>%
  select(-zero_price)

spot_rates_q2

## # A tibble: 6,426 x 4
##   maturity maturity_nm date       spot_rate
##      <dbl> <chr>       <date>         <dbl>
## 1   0.0833 1/12        1980-01-31    0.126 
## 2   0.0833 1/12        1980-02-29    0.136 
## 3   0.0833 1/12        1980-03-31    0.161 
## 4   0.0833 1/12        1980-04-30    0.116 
## 5   0.0833 1/12        1980-05-30    0.0795
## # ... with 6,421 more rows
…
