Finn 6211 - Final Project
…
Each element of the params column contains the data to be used in the model,
the model type, and the bullet to hedge against.

invokable$params[[1]]

## $.data
## # Rolling origin forecast resampling 
## # A tibble: 229 x 2
##   splits       id      
##   <list>       <chr>   
## 1 <S3: rsplit> Slice001
## 2 <S3: rsplit> Slice002
## 3 <S3: rsplit> Slice003
## 4 <S3: rsplit> Slice004
## 5 <S3: rsplit> Slice005
## # ... with 224 more rows
## 
## $model
## [1] "modified_duration"
## 
## $bullet
## [1] "3"
…
